newmtl Part1182Mtl
Material Color
Ka 1 1 1
Kd 1 1 1
Ks 0.0627451 0.0627451 0.0627451 

d 1

Ns 0

map_Ka Part1182_diff.png
map_Kd Part1182_diff.png
map_d Part1182_diff.png

newmtl Part50Mtl
Material Color
Ka 1 1 1
Kd 1 1 1
Ks 0.0627451 0.0627451 0.0627451 

d 1

Ns 0

map_Ka Part50_diff.png
map_Kd Part50_diff.png
map_d Part50_diff.png

newmtl Part4Mtl
Material Color
Ka 1 1 1
Kd 1 1 1
Ks 0.0627451 0.0627451 0.0627451 

d 1

Ns 0

map_Ka Part4_diff.png
map_Kd Part4_diff.png
map_d Part4_diff.png

newmtl Part1Mtl
Material Color
Ka 0.00143313 0.14198 0.420508
Kd 0.00143313 0.14198 0.420508
Ks 8.99222e-05 0.00890857 0.0263848 

d 1

Ns 0

map_Bump Part1_nmap.png

newmtl Part12Mtl
Material Color
Ka 1 1 1
Kd 1 1 1
Ks 0.0627451 0.0627451 0.0627451 

d 1

Ns 0

map_Ka Part12_diff.png
map_Kd Part12_diff.png
map_d Part12_diff.png

newmtl FrostedFlakes3Mtl
Material Color
Ka 1 1 1
Kd 1 1 1
Ks 0.0627451 0.0627451 0.0627451 

d 1

Ns 0

map_Ka FrostedFlakes3_diff.png
map_Kd FrostedFlakes3_diff.png
map_d FrostedFlakes3_diff.png

newmtl Part3Mtl
Material Color
Ka 0.91575 0.618686 0.0253713
Kd 0.91575 0.618686 0.0253713
Ks 0.0574588 0.0388195 0.00159192 

d 1

Ns 0

map_Bump Part1_nmap.png

newmtl Meshesstoreshelfnormals2Mtl
Material Color
Ka 1 1 1
Kd 1 1 1
Ks 0.0627451 0.0627451 0.0627451 

d 0.901961

Ns 0

map_Ka Meshesstoreshelfnormals2_diff.png
map_Kd Meshesstoreshelfnormals2_diff.png
map_d Meshesstoreshelfnormals2_diff.png

newmtl Union1Mtl
Material Color
Ka 0.673049 0.173439 0.042987
Kd 0.673049 0.173439 0.042987
Ks 0.448699 0.115626 0.028658 

d 1

Ns 255

map_Ka Union1_diff.png
map_Kd Union1_diff.png
map_d Union1_diff.png

map_Bump Union1_nmap.png

map_Ns Union1_spec.png

newmtl Part38Mtl
Material Color
Ka 1 1 1
Kd 1 1 1
Ks 0.0627451 0.0627451 0.0627451 

d 1

Ns 0

map_Ka Part38_diff.png
map_Kd Part38_diff.png
map_d Part38_diff.png

newmtl RaisinBran3Mtl
Material Color
Ka 1 1 1
Kd 1 1 1
Ks 0.0627451 0.0627451 0.0627451 

d 1

Ns 0

map_Ka RaisinBran3_diff.png
map_Kd RaisinBran3_diff.png
map_d RaisinBran3_diff.png

newmtl Cheetosfh1Mtl
Material Color
Ka 1 1 1
Kd 1 1 1
Ks 0.0627451 0.0627451 0.0627451 

d 1

Ns 0

map_Ka Cheetosfh1_diff.png
map_Kd Cheetosfh1_diff.png
map_d Cheetosfh1_diff.png

newmtl Part72Mtl
Material Color
Ka 1 1 1
Kd 1 1 1
Ks 0.0627451 0.0627451 0.0627451 

d 1

Ns 0

map_Ka Part72_diff.png
map_Kd Part72_diff.png
map_d Part72_diff.png

newmtl Part526Mtl
Material Color
Ka 0.00258583 0.00258583 0.00258583
Kd 0.00258583 0.00258583 0.00258583
Ks 0.000162248 0.000162248 0.000162248 

d 1

Ns 0

map_Bump Part1_nmap.png

newmtl Part2Mtl
Material Color
Ka 1 1 1
Kd 1 1 1
Ks 0.0627451 0.0627451 0.0627451 

d 1

Ns 0

map_Ka Part2_diff.png
map_Kd Part2_diff.png
map_d Part2_diff.png

newmtl Union14Mtl
Material Color
Ka 0.373615 0.368591 0.383775
Kd 0.373615 0.368591 0.383775
Ks 0.249077 0.245727 0.25585 

d 1

Ns 255

map_Ka Union1_diff.png
map_Kd Union1_diff.png
map_d Union1_diff.png

map_Bump Union1_nmap.png

map_Ns Union1_spec.png

newmtl Part35Mtl
Material Color
Ka 0.0677246 0.315763 0.0677246
Kd 0.0677246 0.315763 0.0677246
Ks 0.00424939 0.0198126 0.00424939 

d 1

Ns 0

map_Bump Part1_nmap.png

newmtl Part5Mtl
Material Color
Ka 0.147998 0.0277553 0.20471
Kd 0.147998 0.0277553 0.20471
Ks 0.00928615 0.00174151 0.0128446 

d 1

Ns 0

map_Bump Part1_nmap.png

newmtl Part6Mtl
Material Color
Ka 1 1 1
Kd 1 1 1
Ks 0.0627451 0.0627451 0.0627451 

d 1

Ns 0

map_Ka Part6_diff.png
map_Kd Part6_diff.png
map_d Part6_diff.png

newmtl Cheetoscj1Mtl
Material Color
Ka 1 1 1
Kd 1 1 1
Ks 0.0627451 0.0627451 0.0627451 

d 1

Ns 0

map_Ka Cheetoscj1_diff.png
map_Kd Cheetoscj1_diff.png
map_d Cheetoscj1_diff.png

newmtl HoneyNutCherrios3Mtl
Material Color
Ka 1 1 1
Kd 1 1 1
Ks 0.0627451 0.0627451 0.0627451 

d 1

Ns 0

map_Ka HoneyNutCherrios3_diff.png
map_Kd HoneyNutCherrios3_diff.png
map_d HoneyNutCherrios3_diff.png

newmtl Part98Mtl
Material Color
Ka 0.383775 0.383775 0.383775
Kd 0.383775 0.383775 0.383775
Ks 0.02408 0.02408 0.02408 

d 1

Ns 0

map_Bump Part1_nmap.png

newmtl Part11Mtl
Material Color
Ka 0.560499 0.0169881 0.00775103
Kd 0.560499 0.0169881 0.00775103
Ks 0.0351686 0.00106592 0.000486339 

d 1

Ns 0

map_Bump Part1_nmap.png

newmtl Part16Mtl
Material Color
Ka 1 1 1
Kd 1 1 1
Ks 0.0627451 0.0627451 0.0627451 

d 1

Ns 0

map_Ka Part16_diff.png
map_Kd Part16_diff.png
map_d Part16_diff.png

newmtl Part21Mtl
Material Color
Ka 0.124741 0.113921 0.121986
Kd 0.124741 0.113921 0.121986
Ks 0.00782688 0.00714798 0.00765401 

d 1

Ns 0

map_Bump Part1_nmap.png

newmtl Part36Mtl
Material Color
Ka 1 1 1
Kd 1 1 1
Ks 0.0627451 0.0627451 0.0627451 

d 1

Ns 0

map_Ka Part36_diff.png
map_Kd Part36_diff.png
map_d Part36_diff.png

newmtl Part1228Mtl
Material Color
Ka 0.14198 0.139022 0.144972
Kd 0.14198 0.139022 0.144972
Ks 0.00890857 0.00872298 0.00909629 

d 1

Ns 0

map_Bump Part1_nmap.png

newmtl Part106Mtl
Material Color
Ka 0 0 0
Kd 0 0 0
Ks 0 0 0 

d 1

Ns 0

map_Bump Part1_nmap.png

newmtl Wheateys3Mtl
Material Color
Ka 1 1 1
Kd 1 1 1
Ks 0.0627451 0.0627451 0.0627451 

d 1

Ns 0

map_Ka Wheateys3_diff.png
map_Kd Wheateys3_diff.png
map_d Wheateys3_diff.png

newmtl Part51Mtl
Material Color
Ka 0.708298 0.238828 0.0494335
Kd 0.708298 0.238828 0.0494335
Ks 0.0444422 0.0149853 0.00310171 

d 1

Ns 0

map_Bump Part1_nmap.png

newmtl Part52Mtl
Material Color
Ka 1 1 1
Kd 1 1 1
Ks 0.0627451 0.0627451 0.0627451 

d 1

Ns 0

map_Ka Part52_diff.png
map_Kd Part52_diff.png
map_d Part52_diff.png

newmtl Meshesstoreshelfnormals1Mtl
Material Color
Ka 1 1 1
Kd 1 1 1
Ks 0.0627451 0.0627451 0.0627451 

d 1

Ns 0

map_Ka Meshesstoreshelfnormals1_diff.png
map_Kd Meshesstoreshelfnormals1_diff.png
map_d Meshesstoreshelfnormals1_diff.png

newmtl Part54Mtl
Material Color
Ka 1 1 1
Kd 1 1 1
Ks 0.0627451 0.0627451 0.0627451 

d 1

Ns 0

map_Ka Part54_diff.png
map_Kd Part54_diff.png
map_d Part54_diff.png

newmtl Part58Mtl
Material Color
Ka 1 1 1
Kd 1 1 1
Ks 0.0627451 0.0627451 0.0627451 

d 1

Ns 0

map_Ka Part58_diff.png
map_Kd Part58_diff.png
map_d Part58_diff.png

newmtl Slidingdoor93Mtl
Material Color
Ka 0.157281 0.325037 0.598942
Kd 0.157281 0.325037 0.598942
Ks 0.0622955 0.12874 0.237228 

d 0.501961

Ns 0

map_Bump Part1_nmap.png

newmtl Part87Mtl
Material Color
Ka 0.180144 0 0
Kd 0.180144 0 0
Ks 0.0113032 0 0 

d 1

Ns 0

map_Bump Part1_nmap.png

newmtl Part89Mtl
Material Color
Ka 0.353741 0.363604 0.420508
Kd 0.353741 0.363604 0.420508
Ks 0.0221955 0.0228144 0.0263848 

d 1

Ns 0

map_Bump Part1_nmap.png

newmtl Part99Mtl
Material Color
Ka 0.891262 0.899384 0.899384
Kd 0.891262 0.899384 0.899384
Ks 0.35301 0.356227 0.356227 

d 1

Ns 0

map_Bump Part1_nmap.png

newmtl Part175Mtl
Material Color
Ka 0.00715504 0.018913 0.0315514
Kd 0.00715504 0.018913 0.0315514
Ks 0.000448943 0.0011867 0.0019797 

d 1

Ns 0

map_Bump Part1_nmap.png

newmtl Part714Mtl
Material Color
Ka 0.373615 0.368591 0.383775
Kd 0.373615 0.368591 0.383775
Ks 0.147981 0.145991 0.152005 

d 1

Ns 0

map_Bump Part1_nmap.png

newmtl Part469Mtl
Material Color
Ka 0.373615 0.368591 0.383775
Kd 0.373615 0.368591 0.383775
Ks 0.0234425 0.0231273 0.02408 

d 1

Ns 0

map_Bump Part1_nmap.png

newmtl Union3Mtl
Material Color
Ka 0.00196342 0.00658496 0.00455975
Kd 0.00196342 0.00658496 0.00455975
Ks 0.000123195 0.000413174 0.000286102 

d 1

Ns 0

map_Bump Part1_nmap.png

newmtl Part470Mtl
Material Color
Ka 0.0384727 0.20836 0.00411618
Kd 0.0384727 0.20836 0.00411618
Ks 0.00105611 0.00571968 0.000112993 

d 1

Ns 0

map_Ka Part470_diff.png
map_Kd Part470_diff.png
map_d Part470_diff.png

map_Bump Part470_nmap.png

map_Ns Part470_spec.png

newmtl Part611Mtl
Material Color
Ka 1 1 1
Kd 1 1 1
Ks 0.0431373 0.0431373 0.0431373 

d 1

Ns 0

map_Ka Part611_diff.png
map_Kd Part611_diff.png
map_d Part611_diff.png

map_Bump Part611_nmap.png

map_Ns Part611_spec.png

newmtl Part727Mtl
Material Color
Ka 0.579547 0.420508 0.190463
Kd 0.579547 0.420508 0.190463
Ks 0.0363637 0.0263848 0.0119506 

d 1

Ns 0

map_Bump Part1_nmap.png

newmtl SmoothBlockModel1Mtl
Material Color
Ka 0.14198 0.0477758 0.0169881
Kd 0.14198 0.0477758 0.0169881
Ks 0.007795 0.00262298 0.000932677 

d 1

Ns 0

map_Ka SmoothBlockModel1_diff.png
map_Kd SmoothBlockModel1_diff.png
map_d SmoothBlockModel1_diff.png

map_Bump SmoothBlockModel1_nmap.png

map_Ns SmoothBlockModel1_spec.png

newmtl SmoothBlockModel7Mtl
Material Color
Ka 0.20471 0.106156 0.0581872
Kd 0.20471 0.106156 0.0581872
Ks 0.011239 0.00582818 0.00319459 

d 1

Ns 0

map_Ka SmoothBlockModel1_diff.png
map_Kd SmoothBlockModel1_diff.png
map_d SmoothBlockModel1_diff.png

map_Bump SmoothBlockModel1_nmap.png

map_Ns SmoothBlockModel1_spec.png

newmtl Union2Mtl
Material Color
Ka 0.103634 0.108711 0.14198
Kd 0.103634 0.108711 0.14198
Ks 0.0690894 0.0724741 0.0946535 

d 1

Ns 255

map_Ka Union1_diff.png
map_Kd Union1_diff.png
map_d Union1_diff.png

map_Bump Union1_nmap.png

map_Ns Union1_spec.png

newmtl W12Mtl
Material Color
Ka 1 0.592438 0.592438
Kd 1 0.592438 0.592438
Ks 0.0627451 0.0371726 0.0371726 

d 1

Ns 0

map_Bump Part1_nmap.png

newmtl KixCereal3Mtl
Material Color
Ka 1 1 1
Kd 1 1 1
Ks 0.0627451 0.0627451 0.0627451 

d 1

Ns 0

map_Ka KixCereal3_diff.png
map_Kd KixCereal3_diff.png
map_d KixCereal3_diff.png

newmtl Part711Mtl
Material Color
Ka 0.00258583 0.00258583 0.00258583
Kd 0.00258583 0.00258583 0.00258583
Ks 0.000141967 0.000141967 0.000141967 

d 1

Ns 0

map_Ka SmoothBlockModel1_diff.png
map_Kd SmoothBlockModel1_diff.png
map_d SmoothBlockModel1_diff.png

map_Bump SmoothBlockModel1_nmap.png

map_Ns SmoothBlockModel1_spec.png

newmtl CoacoPebbles3Mtl
Material Color
Ka 1 1 1
Kd 1 1 1
Ks 0.0627451 0.0627451 0.0627451 

d 1

Ns 0

map_Ka CoacoPebbles3_diff.png
map_Kd CoacoPebbles3_diff.png
map_d CoacoPebbles3_diff.png

newmtl Slidingdoor91Mtl
Material Color
Ka 0.160444 0.0600316 0.0151752
Kd 0.160444 0.0600316 0.0151752
Ks 0.00692109 0.0025896 0.000654618 

d 1

Ns 0

map_Ka Part611_diff.png
map_Kd Part611_diff.png
map_d Part611_diff.png

map_Bump Part611_nmap.png

map_Ns Part611_spec.png

newmtl ByLobberking2Mtl
Material Color
Ka 1 1 1
Kd 1 1 1
Ks 0.0627451 0.0627451 0.0627451 

d 1

Ns 0

map_Ka ByLobberking2_diff.png
map_Kd ByLobberking2_diff.png
map_d ByLobberking2_diff.png

newmtl Part1447Mtl
Material Color
Ka 0 0 1
Kd 0 0 1
Ks 0 0 0.0627451 

d 1

Ns 0

map_Bump Part1_nmap.png

newmtl Handle4Mtl
Material Color
Ka 1 1 1
Kd 1 1 1
Ks 0.0627451 0.0627451 0.0627451 

d 1

Ns 0

map_Ka Handle4_diff.png
map_Kd Handle4_diff.png
map_d Handle4_diff.png

newmtl Slidingdoor81Mtl
Material Color
Ka 0.124741 0.113921 0.121986
Kd 0.124741 0.113921 0.121986
Ks 0.0494072 0.0451216 0.0483159 

d 1

Ns 0

map_Bump Part1_nmap.png

newmtl Slidingdoor101Mtl
Material Color
Ka 0.280124 0.0938759 0.0277553
Kd 0.280124 0.0938759 0.0277553
Ks 0.0120838 0.00404955 0.00119729 

d 1

Ns 0

map_Ka Part611_diff.png
map_Kd Part611_diff.png
map_d Part611_diff.png

map_Bump Part611_nmap.png

map_Ns Part611_spec.png

newmtl Uni00311Mtl
Material Color
Ka 0.0160677 0.0151752 0.0384727
Kd 0.0160677 0.0151752 0.0384727
Ks 0.00636407 0.00601058 0.0152382 

d 1

Ns 0

map_Bump Part1_nmap.png

newmtl Part1164Mtl
Material Color
Ka 0.982826 0.965815 1
Kd 0.982826 0.965815 1
Ks 0.655218 0.643876 0.666667 

d 1

Ns 255

map_Ka Union1_diff.png
map_Kd Union1_diff.png
map_d Union1_diff.png

map_Bump Union1_nmap.png

map_Ns Union1_spec.png

newmtl Part830Mtl
Material Color
Ka 0.598942 0.84337 1
Kd 0.598942 0.84337 1
Ks 0.0375807 0.0529173 0.0627451 

d 1

Ns 0

map_Bump Part1_nmap.png

newmtl Wheateys2Mtl
Material Color
Ka 1 1 1
Kd 1 1 1
Ks 0.0627451 0.0627451 0.0627451 

d 1

Ns 0

map_Ka Wheateys2_diff.png
map_Kd Wheateys2_diff.png
map_d Wheateys2_diff.png

newmtl Part834Mtl
Material Color
Ka 1 1 1
Kd 1 1 1
Ks 0.396078 0.396078 0.396078 

d 1

Ns 0

map_Bump Part1_nmap.png

newmtl Part1276Mtl
Material Color
Ka 0.766744 0.334458 0.0477758
Kd 0.766744 0.334458 0.0477758
Ks 0.0481094 0.0209856 0.00299769 

d 1

Ns 0

map_Bump Part1_nmap.png

newmtl Part835Mtl
Material Color
Ka 1 1 1
Kd 1 1 1
Ks 0.0627451 0.0627451 0.0627451 

d 1

Ns 0

map_Bump Part1_nmap.png

newmtl Part1140Mtl
Material Color
Ka 0 0 0
Kd 0 0 0
Ks 0 0 0 

d 1

Ns 0

map_Ka Part611_diff.png
map_Kd Part611_diff.png
map_d Part611_diff.png

map_Bump Part611_nmap.png

map_Ns Part611_spec.png

newmtl ByLobberking1Mtl
Material Color
Ka 0.851252 0.827726 0.827726
Kd 0.851252 0.827726 0.827726
Ks 0.0534119 0.0519357 0.0519357 

d 1

Ns 0

map_Bump Part1_nmap.png

newmtl Cherrios1Mtl
Material Color
Ka 1 1 0
Kd 1 1 0
Ks 0.0627451 0.0627451 0 

d 1

Ns 0

map_Bump Part1_nmap.png

newmtl Part1142Mtl
Material Color
Ka 0.982826 0.965815 1
Kd 0.982826 0.965815 1
Ks 0.982826 0.965815 1 

d 0.752941

Ns 0

map_Ka Part1142_diff.png
map_Kd Part1142_diff.png
map_d Part1142_diff.png

map_Bump Part1142_nmap.png

map_Ns Part1142_spec.png

newmtl Part1161Mtl
Material Color
Ka 0.982826 0.965815 1
Kd 0.982826 0.965815 1
Ks 0.0886471 0.0871127 0.0901961 

d 1

Ns 0

newmtl Part1258Mtl
Material Color
Ka 0.804559 0.804559 0.84337
Kd 0.804559 0.804559 0.84337
Ks 0.318669 0.318669 0.334041 

d 1

Ns 0

map_Bump Part1_nmap.png

newmtl Handle1Mtl
Material Color
Ka 1 1 1
Kd 1 1 1
Ks 0.0627451 0.0627451 0.0627451 

d 1

Ns 0

map_Ka Handle1_diff.png
map_Kd Handle1_diff.png
map_d Handle1_diff.png

newmtl Part1274Mtl
Material Color
Ka 1 0 0
Kd 1 0 0
Ks 0.0627451 0 0 

d 1

Ns 0

map_Bump Part1_nmap.png

newmtl Part2026Mtl
Material Color
Ka 0.0677246 0.315763 0.0677246
Kd 0.0677246 0.315763 0.0677246
Ks 0.00185911 0.008668 0.00185911 

d 1

Ns 0

map_Ka Part470_diff.png
map_Kd Part470_diff.png
map_d Part470_diff.png

map_Bump Part470_nmap.png

map_Ns Part470_spec.png

newmtl TrixCereal3Mtl
Material Color
Ka 1 1 1
Kd 1 1 1
Ks 0.0627451 0.0627451 0.0627451 

d 1

Ns 0

map_Ka TrixCereal3_diff.png
map_Kd TrixCereal3_diff.png
map_d TrixCereal3_diff.png

newmtl TotalCereal1Mtl
Material Color
Ka 0.21952 0.505432 0.715465
Kd 0.21952 0.505432 0.715465
Ks 0.0137738 0.0317134 0.0448919 

d 1

Ns 0

map_Bump Part1_nmap.png

newmtl TotalCereal3Mtl
Material Color
Ka 1 1 1
Kd 1 1 1
Ks 0.0627451 0.0627451 0.0627451 

d 1

Ns 0

map_Ka TotalCereal3_diff.png
map_Kd TotalCereal3_diff.png
map_d TotalCereal3_diff.png

newmtl RiceCrispies3Mtl
Material Color
Ka 1 1 1
Kd 1 1 1
Ks 0.0627451 0.0627451 0.0627451 

d 1

Ns 0

map_Ka RiceCrispies3_diff.png
map_Kd RiceCrispies3_diff.png
map_d RiceCrispies3_diff.png

newmtl RiceChex1Mtl
Material Color
Ka 0.891262 0.899384 0.899384
Kd 0.891262 0.899384 0.899384
Ks 0.0559223 0.056432 0.056432 

d 1

Ns 0

map_Bump Part1_nmap.png

newmtl RiceChex3Mtl
Material Color
Ka 1 1 1
Kd 1 1 1
Ks 0.0627451 0.0627451 0.0627451 

d 1

Ns 0

map_Ka RiceChex3_diff.png
map_Kd RiceChex3_diff.png
map_d RiceChex3_diff.png

newmtl Floor4Mtl
Material Color
Ka 0 0 0
Kd 0 0 0
Ks 0 0 0 

d 0.2

Ns 0

map_Ka Floor4_diff.png
map_Kd Floor4_diff.png
map_d Floor4_diff.png

newmtl LuckyCharms3Mtl
Material Color
Ka 1 1 1
Kd 1 1 1
Ks 0.0627451 0.0627451 0.0627451 

d 1

Ns 0

map_Ka LuckyCharms3_diff.png
map_Kd LuckyCharms3_diff.png
map_d LuckyCharms3_diff.png

newmtl LifeCereal3Mtl
Material Color
Ka 1 1 1
Kd 1 1 1
Ks 0.0627451 0.0627451 0.0627451 

d 1

Ns 0

newmtl KixCereal1Mtl
Material Color
Ka 1 0.442323 0
Kd 1 0.442323 0
Ks 0.0627451 0.0277536 0 

d 1

Ns 0

map_Bump Part1_nmap.png

newmtl GoldenCrisp3Mtl
Material Color
Ka 1 1 1
Kd 1 1 1
Ks 0.0627451 0.0627451 0.0627451 

d 1

Ns 0

map_Ka GoldenCrisp3_diff.png
map_Kd GoldenCrisp3_diff.png
map_d GoldenCrisp3_diff.png

newmtl FruityPebbles3Mtl
Material Color
Ka 1 1 1
Kd 1 1 1
Ks 0.0627451 0.0627451 0.0627451 

d 1

Ns 0

map_Ka FruityPebbles3_diff.png
map_Kd FruityPebbles3_diff.png
map_d FruityPebbles3_diff.png

newmtl FrootLoops3Mtl
Material Color
Ka 1 1 1
Kd 1 1 1
Ks 0.0627451 0.0627451 0.0627451 

d 1

Ns 0

map_Ka FrootLoops3_diff.png
map_Kd FrootLoops3_diff.png
map_d FrootLoops3_diff.png

newmtl CornFlakes3Mtl
Material Color
Ka 1 1 1
Kd 1 1 1
Ks 0.0627451 0.0627451 0.0627451 

d 1

Ns 0

map_Ka CornFlakes3_diff.png
map_Kd CornFlakes3_diff.png
map_d CornFlakes3_diff.png

newmtl CoacoPuffs1Mtl
Material Color
Ka 0.14198 0.0477758 0.0169881
Kd 0.14198 0.0477758 0.0169881
Ks 0.00890857 0.00299769 0.00106592 

d 1

Ns 0

map_Bump Part1_nmap.png

newmtl CoacoPuffs3Mtl
Material Color
Ka 1 1 1
Kd 1 1 1
Ks 0.0627451 0.0627451 0.0627451 

d 1

Ns 0

map_Ka CoacoPuffs3_diff.png
map_Kd CoacoPuffs3_diff.png
map_d CoacoPuffs3_diff.png

newmtl Part1959Mtl
Material Color
Ka 0.766744 0.334458 0.0477758
Kd 0.766744 0.334458 0.0477758
Ks 0.0420957 0.0183624 0.00262298 

d 1

Ns 0

map_Ka SmoothBlockModel1_diff.png
map_Kd SmoothBlockModel1_diff.png
map_d SmoothBlockModel1_diff.png

map_Bump SmoothBlockModel1_nmap.png

map_Ns SmoothBlockModel1_spec.png

newmtl CinnamonToastCrunch3Mtl
Material Color
Ka 1 1 1
Kd 1 1 1
Ks 0.0627451 0.0627451 0.0627451 

d 1

Ns 0

map_Ka CinnamonToastCrunch3_diff.png
map_Kd CinnamonToastCrunch3_diff.png
map_d CinnamonToastCrunch3_diff.png

newmtl CinnamonToastCrunch4Mtl
Material Color
Ka 1 1 1
Kd 1 1 1
Ks 0.0627451 0.0627451 0.0627451 

d 1

Ns 0

map_Ka CinnamonToastCrunch4_diff.png
map_Kd CinnamonToastCrunch4_diff.png
map_d CinnamonToastCrunch4_diff.png

newmtl Cherrios2Mtl
Material Color
Ka 1 1 1
Kd 1 1 1
Ks 0.0627451 0.0627451 0.0627451 

d 1

Ns 0

map_Ka Cherrios2_diff.png
map_Kd Cherrios2_diff.png
map_d Cherrios2_diff.png

newmtl Cherrios3Mtl
Material Color
Ka 1 1 1
Kd 1 1 1
Ks 0.0627451 0.0627451 0.0627451 

d 1

Ns 0

map_Ka Cherrios3_diff.png
map_Kd Cherrios3_diff.png
map_d Cherrios3_diff.png

newmtl Cherrios4Mtl
Material Color
Ka 1 1 1
Kd 1 1 1
Ks 0.0627451 0.0627451 0.0627451 

d 1

Ns 0

map_Ka Cherrios4_diff.png
map_Kd Cherrios4_diff.png
map_d Cherrios4_diff.png

newmtl Cherrios5Mtl
Material Color
Ka 1 1 1
Kd 1 1 1
Ks 0.0627451 0.0627451 0.0627451 

d 1

Ns 0

map_Ka Cherrios5_diff.png
map_Kd Cherrios5_diff.png
map_d Cherrios5_diff.png

newmtl Cherrios6Mtl
Material Color
Ka 1 1 1
Kd 1 1 1
Ks 0.0627451 0.0627451 0.0627451 

d 1

Ns 0

map_Ka Cherrios6_diff.png
map_Kd Cherrios6_diff.png
map_d Cherrios6_diff.png

newmtl Cherrios7Mtl
Material Color
Ka 1 1 1
Kd 1 1 1
Ks 0.0627451 0.0627451 0.0627451 

d 1

Ns 0

map_Ka Cherrios7_diff.png
map_Kd Cherrios7_diff.png
map_d Cherrios7_diff.png

newmtl CapnCrunchPeanutButter3Mtl
Material Color
Ka 1 1 1
Kd 1 1 1
Ks 0.0627451 0.0627451 0.0627451 

d 1

Ns 0

map_Ka CapnCrunchPeanutButter3_diff.png
map_Kd CapnCrunchPeanutButter3_diff.png
map_d CapnCrunchPeanutButter3_diff.png

newmtl CapnCrunchBerries2Mtl
Material Color
Ka 1 1 1
Kd 1 1 1
Ks 0.0627451 0.0627451 0.0627451 

d 1

Ns 0

map_Ka CapnCrunchBerries2_diff.png
map_Kd CapnCrunchBerries2_diff.png
map_d CapnCrunchBerries2_diff.png

newmtl Bottle1Mtl
Material Color
Ka 0.0780566 0.154152 0.0869013
Kd 0.0780566 0.154152 0.0869013
Ks 0.00489767 0.0096723 0.00545263 

d 1

Ns 0

map_Bump Part1_nmap.png

newmtl Mug1Mtl
Material Color
Ka 0.891262 0.899384 0.899384
Kd 0.891262 0.899384 0.899384
Ks 0.024466 0.024689 0.024689 

d 1

Ns 0

map_Ka Mug1_diff.png
map_Kd Mug1_diff.png
map_d Mug1_diff.png

map_Bump Part1_nmap.png

newmtl Floor1Mtl
Material Color
Ka 0.804559 0.804559 0.84337
Kd 0.804559 0.804559 0.84337
Ks 0.0504821 0.0504821 0.0529173 

d 1

Ns 0

map_Bump Part1_nmap.png

newmtl Char1Mtl
Material Color
Ka 0.00258583 0.00258583 0.00258583
Kd 0.00258583 0.00258583 0.00258583
Ks 0.00102419 0.00102419 0.00102419 

d 1

Ns 0

map_Bump Part1_nmap.png

newmtl Part1442Mtl
Material Color
Ka 0.103634 0.108711 0.14198
Kd 0.103634 0.108711 0.14198
Ks 0.00650253 0.00682109 0.00890857 

d 1

Ns 0

map_Bump Part1_nmap.png

newmtl Part1443Mtl
Material Color
Ka 0.940601 0.940601 0.940601
Kd 0.940601 0.940601 0.940601
Ks 0.372552 0.372552 0.372552 

d 1

Ns 0

map_Bump Part1_nmap.png

newmtl Part1448Mtl
Material Color
Ka 0.804559 0.804559 0.84337
Kd 0.804559 0.804559 0.84337
Ks 0.0504821 0.0504821 0.0529173 

d 0.501961

Ns 0

map_Bump Part1_nmap.png

newmtl Part1449Mtl
Material Color
Ka 0.000107187 0.436813 0.84337
Kd 0.000107187 0.436813 0.84337
Ks 6.72548e-06 0.0274079 0.0529173 

d 0.352941

Ns 0

map_Bump Part1_nmap.png

newmtl Part2033Mtl
Material Color
Ka 0.579547 0.420508 0.190463
Kd 0.579547 0.420508 0.190463
Ks 0.0181819 0.0131924 0.00597531 

d 0.752941

Ns 0

map_Ka Part2033_diff.png
map_Kd Part2033_diff.png
map_d Part2033_diff.png

map_Bump Part2033_nmap.png

map_Ns Part2033_spec.png

newmtl Union11Mtl
Material Color
Ka 0 0 1
Kd 0 0 1
Ks 0 0 0.396078 

d 1

Ns 0

map_Bump Part1_nmap.png

newmtl D1Mtl
Material Color
Ka 0.353741 0.363604 0.420508
Kd 0.353741 0.363604 0.420508
Ks 0.00971054 0.00998128 0.0115434 

d 1

Ns 0

map_Ka D1_diff.png
map_Kd D1_diff.png
map_d D1_diff.png

map_Bump D1_nmap.png

map_Ns D1_spec.png

newmtl Wood1Mtl
Material Color
Ka 0.0915184 0.0511221 0.0328759
Kd 0.0915184 0.0511221 0.0328759
Ks 0.00502454 0.0028067 0.00180495 

d 1

Ns 0

map_Ka SmoothBlockModel1_diff.png
map_Kd SmoothBlockModel1_diff.png
map_d SmoothBlockModel1_diff.png

map_Bump SmoothBlockModel1_nmap.png

map_Ns SmoothBlockModel1_spec.png

newmtl Part1592Mtl
Material Color
Ka 0.74453 0.74453 0.737205
Kd 0.74453 0.74453 0.737205
Ks 0.0467156 0.0467156 0.046256 

d 1

Ns 0

map_Bump Part1_nmap.png

newmtl Part1650Mtl
Material Color
Ka 0.00258583 0.00258583 0.00258583
Kd 0.00258583 0.00258583 0.00258583
Ks 0.000111545 0.000111545 0.000111545 

d 1

Ns 0

map_Ka Part1650_diff.png
map_Kd Part1650_diff.png
map_d Part1650_diff.png

map_Bump Part1650_nmap.png

map_Ns Part1650_spec.png

newmtl Glass1Mtl
Material Color
Ka 0.940601 0.940601 0.940601
Kd 0.940601 0.940601 0.940601
Ks 0.940601 0.940601 0.940601 

d 0.752941

Ns 0

map_Ka Part1142_diff.png
map_Kd Part1142_diff.png
map_d Part1142_diff.png

map_Bump Part1142_nmap.png

map_Ns Part1142_spec.png

newmtl Handle29Mtl
Material Color
Ka 1 1 1
Kd 1 1 1
Ks 0.0627451 0.0627451 0.0627451 

d 1

Ns 0

map_Ka Handle29_diff.png
map_Kd Handle29_diff.png
map_d Handle29_diff.png

newmtl Spinach1Mtl
Material Color
Ka 0.00969633 0.21952 0.00837312
Kd 0.00969633 0.21952 0.00837312
Ks 0.000266174 0.00602603 0.00022985 

d 1

Ns 0

map_Ka Part470_diff.png
map_Kd Part470_diff.png
map_d Part470_diff.png

map_Bump Part470_nmap.png

map_Ns Part470_spec.png

newmtl Soup1Mtl
Material Color
Ka 0.766744 0.334458 0.0477758
Kd 0.766744 0.334458 0.0477758
Ks 0.670525 0.292487 0.0417804 

d 1

Ns 0

map_Ka Soup1_diff.png
map_Kd Soup1_diff.png
map_d Soup1_diff.png

map_Bump Soup1_nmap.png

map_Ns Soup1_spec.png

newmtl Apple1Mtl
Material Color
Ka 1 1 1
Kd 1 1 1
Ks 0.0627451 0.0627451 0.0627451 

d 1

Ns 0

map_Ka Apple1_diff.png
map_Kd Apple1_diff.png
map_d Apple1_diff.png

newmtl Handle30Mtl
Material Color
Ka 0.940601 0.940601 0.940601
Kd 0.940601 0.940601 0.940601
Ks 0.627067 0.627067 0.627067 

d 1

Ns 255

map_Ka Union1_diff.png
map_Kd Union1_diff.png
map_d Union1_diff.png

map_Bump Union1_nmap.png

map_Ns Union1_spec.png

newmtl Meshpart1Mtl
Material Color
Ka 1 1 1
Kd 1 1 1
Ks 0.0627451 0.0627451 0.0627451 

d 1

Ns 0

map_Ka Meshpart1_diff.png
map_Kd Meshpart1_diff.png
map_d Meshpart1_diff.png

newmtl Handle31Mtl
Material Color
Ka 0.851252 0.827726 0.827726
Kd 0.851252 0.827726 0.827726
Ks 0.567501 0.551817 0.551817 

d 1

Ns 255

map_Ka Union1_diff.png
map_Kd Union1_diff.png
map_d Union1_diff.png

map_Bump Union1_nmap.png

map_Ns Union1_spec.png

newmtl Part2032Mtl
Material Color
Ka 0.212044 0.139022 0.0461488
Kd 0.212044 0.139022 0.0461488
Ks 0.00831547 0.00545186 0.00180976 

d 0.701961

Ns 0

map_Ka Part2032_diff.png
map_Kd Part2032_diff.png
map_d Part2032_diff.png

map_Bump Part2032_nmap.png

map_Ns Part2032_spec.png

newmtl Union12Mtl
Material Color
Ka 0.618686 0.618686 0.618686
Kd 0.618686 0.618686 0.618686
Ks 0.245048 0.245048 0.245048 

d 1

Ns 255

map_Bump Union12_nmap.png

map_Ns Union12_spec.png

newmtl Part2034Mtl
Material Color
Ka 0.000638183 0.254916 0.632043
Kd 0.000638183 0.254916 0.632043
Ks 4.00428e-05 0.0159947 0.0396576 

d 1

Ns 0

map_Bump Part1_nmap.png

newmtl Wedge331Mtl
Material Color
Ka 0.505432 0.45908 0.453456
Kd 0.505432 0.45908 0.453456
Ks 0.336955 0.306053 0.302304 

d 1

Ns 255

map_Ka Union1_diff.png
map_Kd Union1_diff.png
map_d Union1_diff.png

map_Bump Union1_nmap.png

map_Ns Union1_spec.png

newmtl Spawnlocation2Mtl
Material Color
Ka 1 1 1
Kd 1 1 1
Ks 0.0627451 0.0627451 0.0627451 

d 1

Ns 0

map_Ka Spawnlocation2_diff.png
map_Kd Spawnlocation2_diff.png
map_d Spawnlocation2_diff.png

newmtl Part2082Mtl
Material Color
Ka 0.373615 0.368591 0.383775
Kd 0.373615 0.368591 0.383775
Ks 0.0336986 0.0332455 0.034615 

d 1

Ns 0

newmtl Floor3Mtl
Material Color
Ka 0.0384727 0.20836 0.00411618
Kd 0.0384727 0.20836 0.00411618
Ks 0.00241398 0.0130735 0.00025827 

d 1

Ns 0

map_Bump Part1_nmap.png

