%YAML 1.1
%TAG !u! tag:unity3d.com,2011:
--- !u!1045 &1
EditorBuildSettings:
  m_ObjectHideFlags: 0
  serializedVersion: 2
  m_Scenes:
  - enabled: 1
    path: Assets/ScenesManagement/ScenesMainMenu.unity
    guid: 884706cc0135f0041955caac811f6b5f
  - enabled: 0
    path: Assets/ScenesManagement/ScenesGameplay.unity
    guid: a35b657975aa6714db643cc7a182fad9
  - enabled: 1
    path: Assets/Scenes/SceneMap1.unity
    guid: efafec75cf2f26146a1129df00f74e9a
  - enabled: 1
    path: Assets/Scenes/SceneMap2.unity
    guid: 5dde4fe708f2e144ba6f134b0ba13d0a
  - enabled: 1
    path: Assets/Scenes/SceneMap3.unity
    guid: 302dad9fec3a59148bab75c3fea285cf
  - enabled: 1
    path: Assets/ScenesManagement/SceneGameOver.unity
    guid: fb92b847901c05149bcdbf0fe50f590e
  - enabled: 1
    path: Assets/ScenesManagement/SceneOptions.unity
    guid: b664c914303dc304e8887d07e0d64167
  - enabled: 1
    path: Assets/ScenesManagement/SceneWin.unity
    guid: 8f4fa25fc2f2d7b4980f1dc7014b11b3
  m_configObjects: {}
