# Blender MTL File: 'Bullet.blend'
# Material Count: 2

newmtl Material
Ns 323.999994
Ka 1.000000 1.000000 1.000000
Kd 1.000000 0.667818 0.180708
Ks 0.500000 0.500000 0.500000
Ke 0.000000 0.000000 0.000000
Ni 1.450000
d 1.000000
illum 2

newmtl Material.004
Ns 225.000000
Ka 1.000000 1.000000 1.000000
Kd 0.800000 0.168164 0.136556
Ks 0.500000 0.500000 0.500000
Ke 0.000000 0.000000 0.000000
Ni 1.450000
d 1.000000
illum 2
