%YAML 1.1
%TAG !u! tag:unity3d.com,2011:
--- !u!1 &6625317945578528631
GameObject:
  m_ObjectHideFlags: 0
  m_CorrespondingSourceObject: {fileID: 0}
  m_PrefabInstance: {fileID: 0}
  m_PrefabAsset: {fileID: 0}
  serializedVersion: 6
  m_Component:
  - component: {fileID: 6625317945578528617}
  - component: {fileID: 6625317945578528630}
  m_Layer: 0
  m_Name: SoundManager
  m_TagString: Untagged
  m_Icon: {fileID: 0}
  m_NavMeshLayer: 0
  m_StaticEditorFlags: 0
  m_IsActive: 1
--- !u!4 &6625317945578528617
Transform:
  m_ObjectHideFlags: 0
  m_CorrespondingSourceObject: {fileID: 0}
  m_PrefabInstance: {fileID: 0}
  m_PrefabAsset: {fileID: 0}
  m_GameObject: {fileID: 6625317945578528631}
  m_LocalRotation: {x: 0, y: 0, z: 0, w: 1}
  m_LocalPosition: {x: 433.25928, y: 182.78648, z: 660.68463}
  m_LocalScale: {x: 1, y: 1, z: 1}
  m_ConstrainProportionsScale: 0
  m_Children: []
  m_Father: {fileID: 0}
  m_RootOrder: 0
  m_LocalEulerAnglesHint: {x: 0, y: 0, z: 0}
--- !u!114 &6625317945578528630
MonoBehaviour:
  m_ObjectHideFlags: 0
  m_CorrespondingSourceObject: {fileID: 0}
  m_PrefabInstance: {fileID: 0}
  m_PrefabAsset: {fileID: 0}
  m_GameObject: {fileID: 6625317945578528631}
  m_Enabled: 1
  m_EditorHideFlags: 0
  m_Script: {fileID: 11500000, guid: 216fbed331321ed4a8d5e024890d8e2b, type: 3}
  m_Name: 
  m_EditorClassIdentifier: 
  m_SoundSettings: {fileID: 11400000, guid: a21fa57e6bef9bb4298e19be42e2d0c2, type: 2}
  m_SliderMasterVolume: {fileID: 0}
  m_SliderMusicVolume: {fileID: 0}
  m_SliderSFXVolume: {fileID: 0}
  ObjectMusic: {fileID: 4122157071390919893, guid: 0418371ac4735fc418c1a8514ac62064, type: 3}
